{
  "urn" : "local:joaopompeu:bccc.slm.masbio:zonas_prioritarias",
  "version" : "0.0.1",
  "adapterType" : "raster",
  "localPath" : "bccc.slm.masbio/resources/zonas_prioritarias.v0.0.1",
  "geometry" : "S2(10287,5154){bbox=[-1.035434016 0.088555669 39.905504383 40.468611539],proj=EPSG:4326}",
  "projectName" : "bccc.slm.masbio",
  "localName" : "zonas_prioritarias.tif",
  "type" : "NUMBER",
  "resourceTimestamp" : 1664366251809,
  "metadata" : { },
  "parameters" : {
    "transform" : "",
    "nodata" : "255.0"
  },
  "localPaths" : "bccc.slm.masbio/resources/zonas_prioritarias.v0.0.1/zonas_prioritarias.tif",
  "history" : [ ],
  "notifications" : [ ],
  "attributes" : [ ],
  "spatialExtent" : {
    "east" : 0.088555669,
    "west" : -1.035434016,
    "north" : 40.468611539,
    "south" : 39.905504383,
    "gridResolution" : null,
    "gridUnit" : null
  },
  "dependencies" : null,
  "outputs" : null,
  "categorizables" : [ ],
  "codelists" : [ ],
  "availability" : null,
  "exportFormats" : {
    "zip" : "GeoTiff"
  }
}