{
  "urn" : "local:itxaso.ruiz:bccc.slm.masbio:LUC_2018_pheno",
  "version" : "0.0.1",
  "adapterType" : "wcs",
  "localPath" : "bccc.slm.masbio/resources/LUC_2018_pheno.v0.0.1",
  "geometry" : "S2(4171,2089){bbox=[-1.035667691 0.08866371899999992 39.905410709 40.468654392],proj=EPSG:4326}",
  "projectName" : "bccc.slm.masbio",
  "localName" : "LUC_2018_pheno",
  "type" : "NUMBER",
  "resourceTimestamp" : 1618829918111,
  "metadata" : { },
  "parameters" : {
    "wcsIdentifier" : "massbio__LUC_2018_pheno",
    "transform" : "",
    "serviceUrl" : "http://192.168.250.122:8600/geoserver/ows",
    "band" : "0",
    "nodata" : "-3.3999999521443642E38",
    "wcsVersion" : "2.0.1"
  },
  "localPaths" : [ ],
  "history" : [ ],
  "notifications" : [ ],
  "attributes" : [ ],
  "spatialExtent" : {
    "east" : 0.08866371899999992,
    "west" : -1.035667691,
    "north" : 40.468654392,
    "south" : 39.905410709,
    "gridResolution" : null,
    "gridUnit" : null
  },
  "dependencies" : null,
  "outputs" : null,
  "categorizables" : [ ],
  "exportFormats" : { }
}